{
  "success": true,
  "data": {
    "entries": [
      {
        "id": "je-2024-0127",
        "organization_id": "org-001",
        "entry_number": "AS-2024-0127",
        "entry_date": "2024-01-21",
        "description": "Contabilización Factura FV-2024-0127",
        "voucher_number": "FV-2024-0127",
        "status": "POSTED",
        "lines": [
          {
            "id": "jel-001",
            "account_code": "1305.05",
            "account_name": "Clientes Nacionales",
            "description": "Por venta de servicios de consultoría",
            "debit": 2450000,
            "credit": 0,
            "cost_center": "CC-001",
            "metadata": {
              "customer_id": "tp-001",
              "due_date": "2024-02-20"
            }
          },
          {
            "id": "jel-002",
            "account_code": "4135.05",
            "account_name": "Ingresos por Servicios de Consultoría",
            "description": "Servicios prestados enero 2024",
            "debit": 0,
            "credit": 2058824,
            "cost_center": "CC-001"
          },
          {
            "id": "jel-003",
            "account_code": "2408.01",
            "account_name": "IVA por Pagar 19%",
            "description": "IVA generado 19%",
            "debit": 0,
            "credit": 391176,
            "metadata": {
              "tax_period": "2024-01"
            }
          }
        ],
        "created_at": "2024-01-21T10:32:00Z",
        "updated_at": "2024-01-21T10:32:00Z",
        "created_by": "user-001"
      },
      {
        "id": "je-2024-0125",
        "organization_id": "org-001",
        "entry_number": "AS-2024-0125",
        "entry_date": "2024-01-21",
        "description": "Contabilización Factura FC-2024-0125",
        "voucher_number": "FC-2024-0125",
        "status": "POSTED",
        "lines": [
          {
            "id": "jel-004",
            "account_code": "1524.05",
            "account_name": "Materiales y Suministros",
            "description": "Compra materiales de oficina",
            "debit": 747899,
            "credit": 0,
            "cost_center": "CC-002"
          },
          {
            "id": "jel-005",
            "account_code": "2408.05",
            "account_name": "IVA Descontable 19%",
            "description": "IVA descontable compras",
            "debit": 142101,
            "credit": 0
          },
          {
            "id": "jel-006",
            "account_code": "2205.01",
            "account_name": "Proveedores Nacionales",
            "description": "Por pagar a Papelería El Escritorio",
            "debit": 0,
            "credit": 890000,
            "metadata": {
              "supplier_id": "tp-003",
              "due_date": "2024-02-20"
            }
          }
        ],
        "created_at": "2024-01-21T09:47:00Z",
        "updated_at": "2024-01-21T09:47:00Z",
        "created_by": "user-002"
      },
      {
        "id": "je-2024-0123",
        "organization_id": "org-001",
        "entry_number": "AS-2024-0123",
        "entry_date": "2024-01-21",
        "description": "Contabilización Recibo RC-2024-0123",
        "voucher_number": "RC-2024-0123",
        "status": "POSTED",
        "lines": [
          {
            "id": "jel-007",
            "account_code": "1105.05",
            "account_name": "Caja General",
            "description": "Recibo de caja #RC-0045",
            "debit": 560000,
            "credit": 0
          },
          {
            "id": "jel-008",
            "account_code": "1305.05",
            "account_name": "Clientes Nacionales",
            "description": "Abono cliente Juan Pérez García",
            "debit": 0,
            "credit": 560000,
            "metadata": {
              "customer_id": "tp-005"
            }
          }
        ],
        "created_at": "2024-01-21T09:02:00Z",
        "updated_at": "2024-01-21T09:02:00Z",
        "created_by": "user-003"
      },
      {
        "id": "je-2024-0122",
        "organization_id": "org-001",
        "entry_number": "AS-2024-0122",
        "entry_date": "2024-01-20",
        "description": "Contabilización Factura FV-2024-0122",
        "voucher_number": "FV-2024-0122",
        "status": "POSTED",
        "lines": [
          {
            "id": "jel-009",
            "account_code": "1305.05",
            "account_name": "Clientes Nacionales",
            "description": "Por venta de productos",
            "debit": 3567800,
            "credit": 0,
            "metadata": {
              "customer_id": "tp-006",
              "due_date": "2024-02-19"
            }
          },
          {
            "id": "jel-010",
            "account_code": "4135.10",
            "account_name": "Ventas de Productos Línea A",
            "description": "Venta productos A-001 y A-002",
            "debit": 0,
            "credit": 2998151,
            "cost_center": "CC-003"
          },
          {
            "id": "jel-011",
            "account_code": "2408.01",
            "account_name": "IVA por Pagar 19%",
            "description": "IVA generado 19%",
            "debit": 0,
            "credit": 569649,
            "metadata": {
              "tax_period": "2024-01"
            }
          }
        ],
        "created_at": "2024-01-20T16:32:00Z",
        "updated_at": "2024-01-20T16:32:00Z",
        "created_by": "user-001"
      },
      {
        "id": "je-2024-0119",
        "organization_id": "org-001",
        "entry_number": "AS-2024-0119",
        "entry_date": "2024-01-20",
        "description": "Contabilización Servicios Públicos FC-2024-0119",
        "voucher_number": "FC-2024-0119",
        "status": "POSTED",
        "lines": [
          {
            "id": "jel-012",
            "account_code": "5135.30",
            "account_name": "Servicios Públicos",
            "description": "Servicios de energía enero 2024",
            "debit": 383681,
            "credit": 0,
            "cost_center": "CC-002"
          },
          {
            "id": "jel-013",
            "account_code": "2408.05",
            "account_name": "IVA Descontable 19%",
            "description": "IVA servicios públicos",
            "debit": 73099,
            "credit": 0
          },
          {
            "id": "jel-014",
            "account_code": "2335.95",
            "account_name": "Servicios Públicos por Pagar",
            "description": "Por pagar empresa de energía",
            "debit": 0,
            "credit": 456780,
            "metadata": {
              "supplier_id": "tp-008"
            }
          }
        ],
        "created_at": "2024-01-20T11:02:00Z",
        "updated_at": "2024-01-20T11:02:00Z",
        "created_by": "user-002"
      },
      {
        "id": "je-2024-0118",
        "organization_id": "org-001",
        "entry_number": "AS-2024-0118",
        "entry_date": "2024-01-19",
        "description": "Pago de Nómina Quincenal PG-2024-0118",
        "voucher_number": "PG-2024-0118",
        "status": "POSTED",
        "lines": [
          {
            "id": "jel-015",
            "account_code": "5105.06",
            "account_name": "Sueldos y Salarios",
            "description": "Nómina primera quincena enero",
            "debit": 12000000,
            "credit": 0,
            "cost_center": "CC-001"
          },
          {
            "id": "jel-016",
            "account_code": "5105.30",
            "account_name": "Aportes a Seguridad Social",
            "description": "Aportes patronales SS",
            "debit": 2160000,
            "credit": 0,
            "cost_center": "CC-001"
          },
          {
            "id": "jel-017",
            "account_code": "5105.33",
            "account_name": "Aportes Parafiscales",
            "description": "Aportes SENA, ICBF, CCF",
            "debit": 1080000,
            "credit": 0,
            "cost_center": "CC-001"
          },
          {
            "id": "jel-018",
            "account_code": "5105.36",
            "account_name": "Prestaciones Sociales",
            "description": "Provisión prestaciones",
            "debit": 430000,
            "credit": 0,
            "cost_center": "CC-001"
          },
          {
            "id": "jel-019",
            "account_code": "1110.05",
            "account_name": "Bancos Nacionales",
            "description": "Pago nómina por transferencia",
            "debit": 0,
            "credit": 10200000
          },
          {
            "id": "jel-020",
            "account_code": "2370.05",
            "account_name": "Retenciones y Aportes de Nómina",
            "description": "Retenciones empleados",
            "debit": 0,
            "credit": 1800000
          },
          {
            "id": "jel-021",
            "account_code": "2370.25",
            "account_name": "Aportes a Seguridad Social por Pagar",
            "description": "SS por pagar",
            "debit": 0,
            "credit": 2160000
          },
          {
            "id": "jel-022",
            "account_code": "2370.30",
            "account_name": "Aportes Parafiscales por Pagar",
            "description": "Parafiscales por pagar",
            "debit": 0,
            "credit": 1080000
          },
          {
            "id": "jel-023",
            "account_code": "2610.05",
            "account_name": "Cesantías Consolidadas",
            "description": "Provisión cesantías",
            "debit": 0,
            "credit": 430000
          }
        ],
        "created_at": "2024-01-19T17:05:00Z",
        "updated_at": "2024-01-19T17:05:00Z",
        "created_by": "user-004"
      },
      {
        "id": "je-2024-0116",
        "organization_id": "org-001",
        "entry_number": "AS-2024-0116",
        "entry_date": "2024-01-19",
        "description": "Abono a factura RC-2024-0116",
        "voucher_number": "RC-2024-0116",
        "status": "POSTED",
        "lines": [
          {
            "id": "jel-024",
            "account_code": "1110.05",
            "account_name": "Bancos Nacionales",
            "description": "Consignación banco",
            "debit": 1000000,
            "credit": 0
          },
          {
            "id": "jel-025",
            "account_code": "1305.05",
            "account_name": "Clientes Nacionales",
            "description": "Abono factura FV-2024-0089",
            "debit": 0,
            "credit": 1000000,
            "metadata": {
              "customer_id": "tp-004",
              "invoice_ref": "FV-2024-0089"
            }
          }
        ],
        "created_at": "2024-01-19T10:02:00Z",
        "updated_at": "2024-01-19T10:02:00Z",
        "created_by": "user-003"
      },
      {
        "id": "je-manual-001",
        "organization_id": "org-001",
        "entry_number": "AS-2024-0090",
        "entry_date": "2024-01-18",
        "description": "Ajuste por diferencia en inventario",
        "voucher_number": null,
        "status": "DRAFT",
        "lines": [
          {
            "id": "jel-026",
            "account_code": "6135.01",
            "account_name": "Costo de Ventas",
            "description": "Ajuste inventario producto A-001",
            "debit": 125000,
            "credit": 0,
            "cost_center": "CC-003"
          },
          {
            "id": "jel-027",
            "account_code": "1435.05",
            "account_name": "Inventario de Productos Terminados",
            "description": "Disminución inventario",
            "debit": 0,
            "credit": 125000,
            "cost_center": "CC-003"
          }
        ],
        "created_at": "2024-01-18T15:30:00Z",
        "updated_at": "2024-01-18T15:30:00Z",
        "created_by": "user-001"
      },
      {
        "id": "je-rev-001",
        "organization_id": "org-001",
        "entry_number": "REV-AS-2024-0085",
        "entry_date": "2024-01-17",
        "description": "Reversión de AS-2024-0085 - Error en cuenta contable",
        "voucher_number": "FV-2024-0085",
        "original_entry_id": "je-2024-0085",
        "status": "POSTED",
        "lines": [
          {
            "id": "jel-028",
            "account_code": "4135.15",
            "account_name": "Ventas de Servicios Otros",
            "description": "Reversión - Servicios varios",
            "debit": 840336,
            "credit": 0
          },
          {
            "id": "jel-029",
            "account_code": "2408.01",
            "account_name": "IVA por Pagar 19%",
            "description": "Reversión - IVA generado",
            "debit": 159664,
            "credit": 0
          },
          {
            "id": "jel-030",
            "account_code": "1305.05",
            "account_name": "Clientes Nacionales",
            "description": "Reversión - Cliente XYZ",
            "debit": 0,
            "credit": 1000000
          }
        ],
        "created_at": "2024-01-17T14:20:00Z",
        "updated_at": "2024-01-17T14:20:00Z",
        "created_by": "user-001"
      }
    ],
    "summary": {
      "total_entries": 245,
      "total_debits": 485750000,
      "total_credits": 485750000,
      "balance": 0,
      "by_status": {
        "DRAFT": 12,
        "POSTED": 230,
        "REVERSED": 3
      }
    },
    "pagination": {
      "current_page": 1,
      "per_page": 20,
      "total_pages": 13,
      "total_records": 245
    }
  },
  "timestamp": "2024-01-21T12:00:00Z"
}