{
  "success": true,
  "data": {
    "vouchers": [
      {
        "id": "v-2024-0127",
        "organization_id": "org-001",
        "voucher_number": "FV-2024-0127",
        "voucher_type": "invoice_sale",
        "type": "invoice_sale",
        "voucher_date": "2024-01-21",
        "description": "Factura venta servicios de consultoría - Enero 2024",
        "total_amount": 2450000,
        "currency_code": "COP",
        "status": "PROCESSED",
        "third_party": {
          "id": "tp-001",
          "name": "ABC Tecnología S.A.",
          "id_number": "900123456-7",
          "type": "customer"
        },
        "metadata": {
          "subtotal": 2058824,
          "taxes": {
            "iva_19": 391176
          }
        },
        "journal_entry": {
          "id": "je-2024-0127",
          "lines": [
            {
              "account_code": "1305.05",
              "description": "Clientes Nacionales",
              "debit": 2450000,
              "credit": 0
            },
            {
              "account_code": "4135.05",
              "description": "Servicios de Consultoría",
              "debit": 0,
              "credit": 2058824
            },
            {
              "account_code": "2408.01",
              "description": "IVA por Pagar",
              "debit": 0,
              "credit": 391176
            }
          ]
        },
        "created_at": "2024-01-21T10:30:00Z",
        "updated_at": "2024-01-21T10:32:00Z"
      },
      {
        "id": "v-2024-0126",
        "organization_id": "org-001",
        "voucher_number": "PG-2024-0126",
        "voucher_type": "payment",
        "type": "payment",
        "voucher_date": "2024-01-21",
        "description": "Pago a proveedor por compra de materiales",
        "total_amount": 1800000,
        "currency_code": "COP",
        "status": "PENDING",
        "third_party": {
          "id": "tp-002",
          "name": "Suministros XYZ Ltda",
          "id_number": "800456789-2",
          "type": "supplier"
        },
        "created_at": "2024-01-21T10:15:00Z",
        "updated_at": "2024-01-21T10:15:00Z"
      },
      {
        "id": "v-2024-0125",
        "organization_id": "org-001",
        "voucher_number": "FC-2024-0125",
        "voucher_type": "invoice_purchase",
        "type": "invoice_purchase",
        "voucher_date": "2024-01-21",
        "description": "Compra materiales de oficina",
        "total_amount": 890000,
        "currency_code": "COP",
        "status": "PROCESSED",
        "third_party": {
          "id": "tp-003",
          "name": "Papelería El Escritorio",
          "id_number": "1234567890",
          "type": "supplier"
        },
        "created_at": "2024-01-21T09:45:00Z",
        "updated_at": "2024-01-21T09:47:00Z"
      },
      {
        "id": "v-2024-0124",
        "organization_id": "org-001",
        "voucher_number": "NC-2024-0124",
        "voucher_type": "credit_note",
        "type": "credit_note",
        "voucher_date": "2024-01-21",
        "description": "Devolución parcial FV-2024-0089",
        "total_amount": 150000,
        "currency_code": "COP",
        "status": "ERROR",
        "error": "Cuenta contable 4135.99 no encontrada",
        "third_party": {
          "id": "tp-004",
          "name": "Cliente Ejemplo S.A.S",
          "id_number": "901234567-8",
          "type": "customer"
        },
        "created_at": "2024-01-21T09:30:00Z",
        "updated_at": "2024-01-21T09:31:00Z"
      },
      {
        "id": "v-2024-0123",
        "organization_id": "org-001",
        "voucher_number": "RC-2024-0123",
        "voucher_type": "receipt",
        "type": "receipt",
        "voucher_date": "2024-01-21",
        "description": "Recibo de caja #RC-0045",
        "total_amount": 560000,
        "currency_code": "COP",
        "status": "PROCESSED",
        "third_party": {
          "id": "tp-005",
          "name": "Juan Pérez García",
          "id_number": "79456123",
          "type": "customer"
        },
        "created_at": "2024-01-21T09:00:00Z",
        "updated_at": "2024-01-21T09:02:00Z"
      },
      {
        "id": "v-2024-0122",
        "organization_id": "org-001",
        "voucher_number": "FV-2024-0122",
        "voucher_type": "invoice_sale",
        "type": "invoice_sale",
        "voucher_date": "2024-01-20",
        "description": "Venta de productos línea A",
        "total_amount": 3567800,
        "currency_code": "COP",
        "status": "PROCESSED",
        "third_party": {
          "id": "tp-006",
          "name": "Distribuidora Nacional",
          "id_number": "860123456-9",
          "type": "customer"
        },
        "items": [
          {
            "description": "Producto A-001",
            "quantity": 10,
            "unit_price": 250000,
            "total": 2500000
          },
          {
            "description": "Producto A-002",
            "quantity": 5,
            "unit_price": 180000,
            "total": 900000
          }
        ],
        "created_at": "2024-01-20T16:30:00Z",
        "updated_at": "2024-01-20T16:32:00Z"
      },
      {
        "id": "v-2024-0121",
        "organization_id": "org-001",
        "voucher_number": "ND-2024-0121",
        "voucher_type": "debit_note",
        "type": "debit_note",
        "voucher_date": "2024-01-20",
        "description": "Ajuste por diferencia en precio",
        "total_amount": 85000,
        "currency_code": "COP",
        "status": "PENDING",
        "third_party": {
          "id": "tp-001",
          "name": "ABC Tecnología S.A.",
          "id_number": "900123456-7",
          "type": "customer"
        },
        "created_at": "2024-01-20T15:00:00Z",
        "updated_at": "2024-01-20T15:00:00Z"
      },
      {
        "id": "v-2024-0120",
        "organization_id": "org-001",
        "voucher_number": "FV-2024-0120",
        "voucher_type": "invoice_sale",
        "type": "invoice_sale",
        "voucher_date": "2024-01-20",
        "description": "Servicios profesionales mes de enero",
        "total_amount": 5950000,
        "currency_code": "COP",
        "status": "PROCESSING",
        "third_party": {
          "id": "tp-007",
          "name": "Empresa Grande S.A.",
          "id_number": "830456789-1",
          "type": "customer"
        },
        "created_at": "2024-01-20T14:00:00Z",
        "updated_at": "2024-01-20T14:01:00Z"
      },
      {
        "id": "v-2024-0119",
        "organization_id": "org-001",
        "voucher_number": "FC-2024-0119",
        "voucher_type": "invoice_purchase",
        "type": "invoice_purchase",
        "voucher_date": "2024-01-20",
        "description": "Servicios públicos enero 2024",
        "total_amount": 456780,
        "currency_code": "COP",
        "status": "PROCESSED",
        "third_party": {
          "id": "tp-008",
          "name": "Empresa de Energía",
          "id_number": "899999999-0",
          "type": "supplier"
        },
        "created_at": "2024-01-20T11:00:00Z",
        "updated_at": "2024-01-20T11:02:00Z"
      },
      {
        "id": "v-2024-0118",
        "organization_id": "org-001",
        "voucher_number": "PG-2024-0118",
        "voucher_type": "payment",
        "type": "payment",
        "voucher_date": "2024-01-19",
        "description": "Pago nómina quincenal",
        "total_amount": 15670000,
        "currency_code": "COP",
        "status": "PROCESSED",
        "third_party": {
          "id": "tp-009",
          "name": "Empleados Nómina",
          "id_number": "NOMINA-001",
          "type": "employee"
        },
        "created_at": "2024-01-19T17:00:00Z",
        "updated_at": "2024-01-19T17:05:00Z"
      },
      {
        "id": "v-2024-0117",
        "organization_id": "org-001",
        "voucher_number": "FV-2024-0117",
        "voucher_type": "invoice_sale",
        "type": "invoice_sale",
        "voucher_date": "2024-01-19",
        "description": "Venta al contado tienda física",
        "total_amount": 234500,
        "currency_code": "COP",
        "status": "DRAFT",
        "third_party": {
          "id": "tp-010",
          "name": "Cliente Contado",
          "id_number": "222222222",
          "type": "customer"
        },
        "created_at": "2024-01-19T14:30:00Z",
        "updated_at": "2024-01-19T14:30:00Z"
      },
      {
        "id": "v-2024-0116",
        "organization_id": "org-001",
        "voucher_number": "RC-2024-0116",
        "voucher_type": "receipt",
        "type": "receipt",
        "voucher_date": "2024-01-19",
        "description": "Abono a factura FV-2024-0089",
        "total_amount": 1000000,
        "currency_code": "COP",
        "status": "PROCESSED",
        "third_party": {
          "id": "tp-004",
          "name": "Cliente Ejemplo S.A.S",
          "id_number": "901234567-8",
          "type": "customer"
        },
        "created_at": "2024-01-19T10:00:00Z",
        "updated_at": "2024-01-19T10:02:00Z"
      },
      {
        "id": "v-2024-0115",
        "organization_id": "org-001",
        "voucher_number": "FV-2024-0115",
        "voucher_type": "invoice_sale",
        "type": "invoice_sale",
        "voucher_date": "2024-01-18",
        "description": "Exportación de servicios",
        "total_amount": 8900000,
        "currency_code": "COP",
        "status": "CANCELLED",
        "third_party": {
          "id": "tp-011",
          "name": "International Corp",
          "id_number": "INT-001",
          "type": "customer"
        },
        "created_at": "2024-01-18T16:00:00Z",
        "updated_at": "2024-01-18T17:00:00Z"
      }
    ],
    "stats": {
      "total_vouchers": 3421,
      "total_amount": 458750000.50,
      "pending_count": 187,
      "error_count": 34,
      "by_type": {
        "invoice_sale": 1250,
        "invoice_purchase": 890,
        "payment": 650,
        "receipt": 430,
        "credit_note": 120,
        "debit_note": 81
      },
      "by_status": {
        "DRAFT": 45,
        "PENDING": 187,
        "PROCESSING": 89,
        "PROCESSED": 3066,
        "ERROR": 34,
        "CANCELLED": 0
      }
    },
    "pagination": {
      "current_page": 1,
      "per_page": 50,
      "total_pages": 69,
      "total_records": 3421
    }
  },
  "timestamp": "2024-01-21T11:30:00Z"
}